{
    "AUTHOR" : "dimxxz",
    "INSTALL_MSG" : "Thank you for using my raidprotect v2 cog",
    "NAME" : "raidprotect",
    "SHORT" : "Raid Protect v2.0",
    "DESCRIPTION" : "Protects your server from raids",
    "TAGS": ["raid", "raidprotect", "security"]
}
